<?xml version="1.0" standalone="no"?>
<!DOCTYPE svg PUBLIC "-//W3C//DTD SVG 1.1//EN" "http://www.w3.org/Graphics/SVG/1.1/DTD/svg11.dtd">
<svg xmlns="http://www.w3.org/2000/svg">
<metadata>Copyright (C) 2015 by original authors @ fontello.com</metadata>
<defs>
<font id="fontello" horiz-adv-x="1000" >
<font-face font-family="fontello" font-weight="400" font-stretch="normal" units-per-em="1000" ascent="850" descent="-150" />
<missing-glyph horiz-adv-x="1000" />
<glyph glyph-name="vkontakte" unicode="&#xe800;" d="m1070 560q13-36-84-164-13-18-36-48-44-56-50-73-10-23 7-45 10-12 46-46h0l1 0 0-1 1-1q79-73 107-123 2-3 4-7t3-15 0-19-14-15-33-7l-143-3q-13-2-31 3t-29 12l-11 7q-17 12-39 36t-38 43-34 32-32 9q-1 0-4-2t-10-8-12-16-9-29-4-44q0-8-2-15t-4-10l-2-3q-10-11-30-12h-64q-40-3-81 9t-74 29-57 37-40 32l-14 14q-5 5-15 16t-40 51-59 84-68 118-73 152q-4 9-4 15t2 9l2 3q9 11 32 11l153 1q7-1 13-4t9-4l3-2q9-6 13-18 11-28 26-58t23-45l9-16q16-34 31-58t27-38 23-22 19-8 15 3q1 1 3 3t7 12 7 26 5 46 0 69q-1 23-5 41t-7 26l-4 6q-14 19-47 24-8 2 3 14 9 10 21 17 29 14 133 13 46-1 75-7 12-3 19-8t12-13 5-18 2-26 0-30-2-40 0-46q0-6-1-23t0-27 2-22 6-22 13-14q4-1 9-2t15 6 21 19 29 38 38 60q33 58 60 125 2 6 5 10t6 6l2 2 3 1t8 2 11 0l160 1q22 3 36-1t17-10z" horiz-adv-x="1071.4" />
<glyph glyph-name="facebook-official" unicode="&#xe801;" d="m810 779q19 0 33-14t14-34v-762q0-20-14-34t-33-14h-218v332h111l16 130h-127v83q0 31 13 46t51 16l68 1v115q-35 5-100 5-75 0-121-45t-45-126v-95h-112v-130h112v-332h-411q-19 0-33 14t-14 34v762q0 20 14 34t33 14h763z" horiz-adv-x="857.1" />
<glyph glyph-name="location" unicode="&#xe802;" d="m429 493q0 59-42 101t-101 42-101-42-42-101 42-101 101-42 101 42 42 101z m142 0q0-61-18-100l-203-432q-9-18-27-29t-37-11-38 11-26 29l-204 432q-18 39-18 100 0 118 84 202t202 84 202-84 83-202z" horiz-adv-x="571.4" />
<glyph glyph-name="search" unicode="&#xe803;" d="m643 386q0 103-74 176t-176 74-177-74-73-176 73-177 177-73 176 73 74 177z m286-465q0-29-22-50t-50-21q-30 0-50 21l-191 191q-100-69-223-69-80 0-153 31t-125 84-84 125-31 153 31 152 84 126 125 84 153 31 152-31 126-84 84-126 31-152q0-123-69-223l191-191q21-21 21-51z" horiz-adv-x="928.6" />
<glyph glyph-name="left-open-big" unicode="&#xe804;" d="m452-20q26-26 0-48-26-26-48 0l-392 394q-24 24 0 50l392 394q22 26 48 0 26-22 0-48l-358-372z" horiz-adv-x="465" />
<glyph glyph-name="right-open-big" unicode="&#xe805;" d="m13-20l358 370-358 372q-26 26 0 48 26 26 48 0l392-394q24-26 0-50l-392-394q-22-26-48 0-26 22 0 48z" horiz-adv-x="465" />
<glyph glyph-name="down-micro" unicode="&#xe806;" d="m235 231l-235 236h471z" horiz-adv-x="471" />
</font>
</defs>
</svg>